<?xml version="1.0" encoding="UTF-8"?>
<svg width="595.28pt" version="1.1" xmlns="http://www.w3.org/2000/svg" height="841.89pt" viewBox="0 0 595.28 841.89" xmlns:xlink="http://www.w3.org/1999/xlink">
 <defs/>
 <g id="Fond de page">
  <g transform="translate(1.36842, -2.94737)">
   <path style="fill:none; stroke:none;" d="M0 0 L581.684 0 L581.684 844.105 L0 844.105 L0 0 Z"/>
  </g>
 </g>
</svg>
