%!PS-Adobe-3.0 EPSF-3.0
%%Creator: cairo 1.14.6 (http://cairographics.org)
%%CreationDate: Wed Dec 14 17:18:52 2016
%%Pages: 1
%%DocumentData: Clean7Bit
%%LanguageLevel: 2
%%BoundingBox: 56 56 539 785
%%EndComments
%%BeginProlog
save
50 dict begin
/q { gsave } bind def
/Q { grestore } bind def
/cm { 6 array astore concat } bind def
/w { setlinewidth } bind def
/J { setlinecap } bind def
/j { setlinejoin } bind def
/M { setmiterlimit } bind def
/d { setdash } bind def
/m { moveto } bind def
/l { lineto } bind def
/c { curveto } bind def
/h { closepath } bind def
/re { exch dup neg 3 1 roll 5 3 roll moveto 0 rlineto
      0 exch rlineto 0 rlineto closepath } bind def
/S { stroke } bind def
/f { fill } bind def
/f* { eofill } bind def
/n { newpath } bind def
/W { clip } bind def
/W* { eoclip } bind def
/BT { } bind def
/ET { } bind def
/pdfmark where { pop globaldict /?pdfmark /exec load put }
    { globaldict begin /?pdfmark /pop load def /pdfmark
    /cleartomark load def end } ifelse
/BDC { mark 3 1 roll /BDC pdfmark } bind def
/EMC { mark /EMC pdfmark } bind def
/cairo_store_point { /cairo_point_y exch def /cairo_point_x exch def } def
/Tj { show currentpoint cairo_store_point } bind def
/TJ {
  {
    dup
    type /stringtype eq
    { show } { -0.001 mul 0 cairo_font_matrix dtransform rmoveto } ifelse
  } forall
  currentpoint cairo_store_point
} bind def
/cairo_selectfont { cairo_font_matrix aload pop pop pop 0 0 6 array astore
    cairo_font exch selectfont cairo_point_x cairo_point_y moveto } bind def
/Tf { pop /cairo_font exch def /cairo_font_matrix where
      { pop cairo_selectfont } if } bind def
/Td { matrix translate cairo_font_matrix matrix concatmatrix dup
      /cairo_font_matrix exch def dup 4 get exch 5 get cairo_store_point
      /cairo_font where { pop cairo_selectfont } if } bind def
/Tm { 2 copy 8 2 roll 6 array astore /cairo_font_matrix exch def
      cairo_store_point /cairo_font where { pop cairo_selectfont } if } bind def
/g { setgray } bind def
/rg { setrgbcolor } bind def
/d1 { setcachedevice } bind def
%%EndProlog
%%BeginSetup
%%EndSetup
%%Page: 1 1
%%BeginPageSetup
%%PageBoundingBox: 56 56 539 785
%%EndPageSetup
q 56 56 483 729 rectclip q
1 g
56 785 483 -728.973 re f
0 g
0.958334 w
1 J
0 j
[] 0.0 d
4 M q 1 0 0 -1 0 841 cm
59.43 57.598 m 59.43 57.598 l S Q
q 1 0 0 -1 0 841 cm
60.07 57.598 m 60.07 57.598 l S Q
q 1 0 0 -1 0 841 cm
60.707 57.598 m 60.707 57.598 l S Q
q 1 0 0 -1 0 841 cm
58.793 58.234 m 58.793 58.234 l S Q
q 1 0 0 -1 0 841 cm
61.348 58.234 m 61.348 58.234 l S Q
q 1 0 0 -1 0 841 cm
58.152 58.875 m 58.152 58.875 l S Q
q 1 0 0 -1 0 841 cm
61.988 58.875 m 61.988 58.875 l S Q
q 1 0 0 -1 0 841 cm
58.152 59.516 m 58.152 59.516 l S Q
q 1 0 0 -1 0 841 cm
61.988 59.516 m 61.988 59.516 l S Q
q 1 0 0 -1 0 841 cm
58.152 60.152 m 58.152 60.152 l S Q
q 1 0 0 -1 0 841 cm
61.988 60.152 m 61.988 60.152 l S Q
q 1 0 0 -1 0 841 cm
58.152 60.793 m 58.152 60.793 l S Q
q 1 0 0 -1 0 841 cm
58.793 60.793 m 58.793 60.793 l S Q
q 1 0 0 -1 0 841 cm
59.43 60.793 m 59.43 60.793 l S Q
q 1 0 0 -1 0 841 cm
60.07 60.793 m 60.07 60.793 l S Q
q 1 0 0 -1 0 841 cm
60.707 60.793 m 60.707 60.793 l S Q
q 1 0 0 -1 0 841 cm
61.348 60.793 m 61.348 60.793 l S Q
q 1 0 0 -1 0 841 cm
61.988 60.793 m 61.988 60.793 l S Q
q 1 0 0 -1 0 841 cm
58.152 61.43 m 58.152 61.43 l S Q
q 1 0 0 -1 0 841 cm
61.988 61.43 m 61.988 61.43 l S Q
q 1 0 0 -1 0 841 cm
58.152 62.07 m 58.152 62.07 l S Q
q 1 0 0 -1 0 841 cm
61.988 62.07 m 61.988 62.07 l S Q
q 1 0 0 -1 0 841 cm
58.152 63.609 m 58.152 63.609 l S Q
q 1 0 0 -1 0 841 cm
61.988 63.609 m 61.988 63.609 l S Q
q 1 0 0 -1 0 841 cm
58.152 64.25 m 58.152 64.25 l S Q
q 1 0 0 -1 0 841 cm
61.988 64.25 m 61.988 64.25 l S Q
q 1 0 0 -1 0 841 cm
58.152 64.887 m 58.152 64.887 l S Q
q 1 0 0 -1 0 841 cm
61.988 64.887 m 61.988 64.887 l S Q
q 1 0 0 -1 0 841 cm
58.152 65.527 m 58.152 65.527 l S Q
q 1 0 0 -1 0 841 cm
61.988 65.527 m 61.988 65.527 l S Q
q 1 0 0 -1 0 841 cm
66.457 57.598 m 66.457 57.598 l S Q
q 1 0 0 -1 0 841 cm
67.098 57.598 m 67.098 57.598 l S Q
q 1 0 0 -1 0 841 cm
67.738 57.598 m 67.738 57.598 l S Q
q 1 0 0 -1 0 841 cm
68.375 57.598 m 68.375 57.598 l S Q
q 1 0 0 -1 0 841 cm
69.016 57.598 m 69.016 57.598 l S Q
q 1 0 0 -1 0 841 cm
66.457 58.234 m 66.457 58.234 l S Q
q 1 0 0 -1 0 841 cm
69.652 58.234 m 69.652 58.234 l S Q
q 1 0 0 -1 0 841 cm
66.457 58.875 m 66.457 58.875 l S Q
q 1 0 0 -1 0 841 cm
70.293 58.875 m 70.293 58.875 l S Q
q 1 0 0 -1 0 841 cm
66.457 59.516 m 66.457 59.516 l S Q
q 1 0 0 -1 0 841 cm
70.293 59.516 m 70.293 59.516 l S Q
q 1 0 0 -1 0 841 cm
66.457 60.152 m 66.457 60.152 l S Q
q 1 0 0 -1 0 841 cm
69.652 60.152 m 69.652 60.152 l S Q
q 1 0 0 -1 0 841 cm
66.457 60.793 m 66.457 60.793 l S Q
q 1 0 0 -1 0 841 cm
67.098 60.793 m 67.098 60.793 l S Q
q 1 0 0 -1 0 841 cm
67.738 60.793 m 67.738 60.793 l S Q
q 1 0 0 -1 0 841 cm
68.375 60.793 m 68.375 60.793 l S Q
q 1 0 0 -1 0 841 cm
69.016 60.793 m 69.016 60.793 l S Q
q 1 0 0 -1 0 841 cm
66.457 61.43 m 66.457 61.43 l S Q
q 1 0 0 -1 0 841 cm
69.652 61.43 m 69.652 61.43 l S Q
q 1 0 0 -1 0 841 cm
66.457 62.07 m 66.457 62.07 l S Q
q 1 0 0 -1 0 841 cm
70.293 62.07 m 70.293 62.07 l S Q
q 1 0 0 -1 0 841 cm
66.457 63.609 m 66.457 63.609 l S Q
q 1 0 0 -1 0 841 cm
70.293 63.609 m 70.293 63.609 l S Q
q 1 0 0 -1 0 841 cm
66.457 64.25 m 66.457 64.25 l S Q
q 1 0 0 -1 0 841 cm
70.293 64.25 m 70.293 64.25 l S Q
q 1 0 0 -1 0 841 cm
66.457 64.887 m 66.457 64.887 l S Q
q 1 0 0 -1 0 841 cm
69.652 64.887 m 69.652 64.887 l S Q
q 1 0 0 -1 0 841 cm
66.457 65.527 m 66.457 65.527 l S Q
q 1 0 0 -1 0 841 cm
67.098 65.527 m 67.098 65.527 l S Q
q 1 0 0 -1 0 841 cm
67.738 65.527 m 67.738 65.527 l S Q
q 1 0 0 -1 0 841 cm
68.375 65.527 m 68.375 65.527 l S Q
q 1 0 0 -1 0 841 cm
69.016 65.527 m 69.016 65.527 l S Q
q 1 0 0 -1 0 841 cm
76.043 57.598 m 76.043 57.598 l S Q
q 1 0 0 -1 0 841 cm
76.68 57.598 m 76.68 57.598 l S Q
q 1 0 0 -1 0 841 cm
77.32 57.598 m 77.32 57.598 l S Q
q 1 0 0 -1 0 841 cm
75.402 58.234 m 75.402 58.234 l S Q
q 1 0 0 -1 0 841 cm
77.957 58.234 m 77.957 58.234 l S Q
q 1 0 0 -1 0 841 cm
74.766 58.875 m 74.766 58.875 l S Q
q 1 0 0 -1 0 841 cm
78.598 58.875 m 78.598 58.875 l S Q
q 1 0 0 -1 0 841 cm
74.766 59.516 m 74.766 59.516 l S Q
q 1 0 0 -1 0 841 cm
74.766 60.152 m 74.766 60.152 l S Q
q 1 0 0 -1 0 841 cm
74.766 60.793 m 74.766 60.793 l S Q
q 1 0 0 -1 0 841 cm
74.766 61.43 m 74.766 61.43 l S Q
q 1 0 0 -1 0 841 cm
74.766 62.07 m 74.766 62.07 l S Q
q 1 0 0 -1 0 841 cm
74.766 63.609 m 74.766 63.609 l S Q
q 1 0 0 -1 0 841 cm
74.766 64.25 m 74.766 64.25 l S Q
q 1 0 0 -1 0 841 cm
78.598 64.25 m 78.598 64.25 l S Q
q 1 0 0 -1 0 841 cm
75.402 64.887 m 75.402 64.887 l S Q
q 1 0 0 -1 0 841 cm
77.957 64.887 m 77.957 64.887 l S Q
q 1 0 0 -1 0 841 cm
76.043 65.527 m 76.043 65.527 l S Q
q 1 0 0 -1 0 841 cm
76.68 65.527 m 76.68 65.527 l S Q
q 1 0 0 -1 0 841 cm
77.32 65.527 m 77.32 65.527 l S Q
q 1 0 0 -1 0 841 cm
83.07 57.598 m 83.07 57.598 l S Q
q 1 0 0 -1 0 841 cm
83.707 57.598 m 83.707 57.598 l S Q
q 1 0 0 -1 0 841 cm
84.348 57.598 m 84.348 57.598 l S Q
q 1 0 0 -1 0 841 cm
84.988 57.598 m 84.988 57.598 l S Q
q 1 0 0 -1 0 841 cm
85.625 57.598 m 85.625 57.598 l S Q
q 1 0 0 -1 0 841 cm
83.07 58.234 m 83.07 58.234 l S Q
q 1 0 0 -1 0 841 cm
86.266 58.234 m 86.266 58.234 l S Q
q 1 0 0 -1 0 841 cm
83.07 58.875 m 83.07 58.875 l S Q
q 1 0 0 -1 0 841 cm
86.902 58.875 m 86.902 58.875 l S Q
q 1 0 0 -1 0 841 cm
83.07 59.516 m 83.07 59.516 l S Q
q 1 0 0 -1 0 841 cm
86.902 59.516 m 86.902 59.516 l S Q
q 1 0 0 -1 0 841 cm
83.07 60.152 m 83.07 60.152 l S Q
q 1 0 0 -1 0 841 cm
86.902 60.152 m 86.902 60.152 l S Q
q 1 0 0 -1 0 841 cm
83.07 60.793 m 83.07 60.793 l S Q
q 1 0 0 -1 0 841 cm
86.902 60.793 m 86.902 60.793 l S Q
q 1 0 0 -1 0 841 cm
83.07 61.43 m 83.07 61.43 l S Q
q 1 0 0 -1 0 841 cm
86.902 61.43 m 86.902 61.43 l S Q
q 1 0 0 -1 0 841 cm
83.07 62.07 m 83.07 62.07 l S Q
q 1 0 0 -1 0 841 cm
86.902 62.07 m 86.902 62.07 l S Q
q 1 0 0 -1 0 841 cm
83.07 63.609 m 83.07 63.609 l S Q
q 1 0 0 -1 0 841 cm
86.902 63.609 m 86.902 63.609 l S Q
q 1 0 0 -1 0 841 cm
83.07 64.25 m 83.07 64.25 l S Q
q 1 0 0 -1 0 841 cm
86.902 64.25 m 86.902 64.25 l S Q
q 1 0 0 -1 0 841 cm
83.07 64.887 m 83.07 64.887 l S Q
q 1 0 0 -1 0 841 cm
86.266 64.887 m 86.266 64.887 l S Q
q 1 0 0 -1 0 841 cm
83.07 65.527 m 83.07 65.527 l S Q
q 1 0 0 -1 0 841 cm
83.707 65.527 m 83.707 65.527 l S Q
q 1 0 0 -1 0 841 cm
84.348 65.527 m 84.348 65.527 l S Q
q 1 0 0 -1 0 841 cm
84.988 65.527 m 84.988 65.527 l S Q
q 1 0 0 -1 0 841 cm
85.625 65.527 m 85.625 65.527 l S Q
q 1 0 0 -1 0 841 cm
91.375 57.598 m 91.375 57.598 l S Q
q 1 0 0 -1 0 841 cm
92.016 57.598 m 92.016 57.598 l S Q
q 1 0 0 -1 0 841 cm
92.652 57.598 m 92.652 57.598 l S Q
q 1 0 0 -1 0 841 cm
93.293 57.598 m 93.293 57.598 l S Q
q 1 0 0 -1 0 841 cm
93.93 57.598 m 93.93 57.598 l S Q
q 1 0 0 -1 0 841 cm
94.57 57.598 m 94.57 57.598 l S Q
q 1 0 0 -1 0 841 cm
95.207 57.598 m 95.207 57.598 l S Q
q 1 0 0 -1 0 841 cm
91.375 58.234 m 91.375 58.234 l S Q
q 1 0 0 -1 0 841 cm
91.375 58.875 m 91.375 58.875 l S Q
q 1 0 0 -1 0 841 cm
91.375 59.516 m 91.375 59.516 l S Q
q 1 0 0 -1 0 841 cm
91.375 60.152 m 91.375 60.152 l S Q
q 1 0 0 -1 0 841 cm
91.375 60.793 m 91.375 60.793 l S Q
q 1 0 0 -1 0 841 cm
92.016 60.793 m 92.016 60.793 l S Q
q 1 0 0 -1 0 841 cm
92.652 60.793 m 92.652 60.793 l S Q
q 1 0 0 -1 0 841 cm
93.293 60.793 m 93.293 60.793 l S Q
q 1 0 0 -1 0 841 cm
93.93 60.793 m 93.93 60.793 l S Q
q 1 0 0 -1 0 841 cm
91.375 61.43 m 91.375 61.43 l S Q
q 1 0 0 -1 0 841 cm
91.375 62.07 m 91.375 62.07 l S Q
q 1 0 0 -1 0 841 cm
91.375 63.609 m 91.375 63.609 l S Q
q 1 0 0 -1 0 841 cm
91.375 64.25 m 91.375 64.25 l S Q
q 1 0 0 -1 0 841 cm
91.375 64.887 m 91.375 64.887 l S Q
q 1 0 0 -1 0 841 cm
91.375 65.527 m 91.375 65.527 l S Q
q 1 0 0 -1 0 841 cm
92.016 65.527 m 92.016 65.527 l S Q
q 1 0 0 -1 0 841 cm
92.652 65.527 m 92.652 65.527 l S Q
q 1 0 0 -1 0 841 cm
93.293 65.527 m 93.293 65.527 l S Q
q 1 0 0 -1 0 841 cm
93.93 65.527 m 93.93 65.527 l S Q
q 1 0 0 -1 0 841 cm
94.57 65.527 m 94.57 65.527 l S Q
q 1 0 0 -1 0 841 cm
95.207 65.527 m 95.207 65.527 l S Q
q 1 0 0 -1 0 841 cm
99.68 57.598 m 99.68 57.598 l S Q
q 1 0 0 -1 0 841 cm
100.32 57.598 m 100.32 57.598 l S Q
q 1 0 0 -1 0 841 cm
100.957 57.598 m 100.957 57.598 l S Q
q 1 0 0 -1 0 841 cm
101.598 57.598 m 101.598 57.598 l S Q
q 1 0 0 -1 0 841 cm
102.238 57.598 m 102.238 57.598 l S Q
q 1 0 0 -1 0 841 cm
102.875 57.598 m 102.875 57.598 l S Q
q 1 0 0 -1 0 841 cm
103.516 57.598 m 103.516 57.598 l S Q
q 1 0 0 -1 0 841 cm
99.68 58.234 m 99.68 58.234 l S Q
q 1 0 0 -1 0 841 cm
99.68 58.875 m 99.68 58.875 l S Q
q 1 0 0 -1 0 841 cm
99.68 59.516 m 99.68 59.516 l S Q
q 1 0 0 -1 0 841 cm
99.68 60.152 m 99.68 60.152 l S Q
q 1 0 0 -1 0 841 cm
99.68 60.793 m 99.68 60.793 l S Q
q 1 0 0 -1 0 841 cm
100.32 60.793 m 100.32 60.793 l S Q
q 1 0 0 -1 0 841 cm
100.957 60.793 m 100.957 60.793 l S Q
q 1 0 0 -1 0 841 cm
101.598 60.793 m 101.598 60.793 l S Q
q 1 0 0 -1 0 841 cm
102.238 60.793 m 102.238 60.793 l S Q
q 1 0 0 -1 0 841 cm
99.68 61.43 m 99.68 61.43 l S Q
q 1 0 0 -1 0 841 cm
99.68 62.07 m 99.68 62.07 l S Q
q 1 0 0 -1 0 841 cm
99.68 63.609 m 99.68 63.609 l S Q
q 1 0 0 -1 0 841 cm
99.68 64.25 m 99.68 64.25 l S Q
q 1 0 0 -1 0 841 cm
99.68 64.887 m 99.68 64.887 l S Q
q 1 0 0 -1 0 841 cm
99.68 65.527 m 99.68 65.527 l S Q
q 1 0 0 -1 0 841 cm
109.266 57.598 m 109.266 57.598 l S Q
q 1 0 0 -1 0 841 cm
109.902 57.598 m 109.902 57.598 l S Q
q 1 0 0 -1 0 841 cm
110.543 57.598 m 110.543 57.598 l S Q
q 1 0 0 -1 0 841 cm
108.625 58.234 m 108.625 58.234 l S Q
q 1 0 0 -1 0 841 cm
111.18 58.234 m 111.18 58.234 l S Q
q 1 0 0 -1 0 841 cm
107.988 58.875 m 107.988 58.875 l S Q
q 1 0 0 -1 0 841 cm
107.988 59.516 m 107.988 59.516 l S Q
q 1 0 0 -1 0 841 cm
107.988 60.152 m 107.988 60.152 l S Q
q 1 0 0 -1 0 841 cm
107.988 60.793 m 107.988 60.793 l S Q
q 1 0 0 -1 0 841 cm
109.902 60.793 m 109.902 60.793 l S Q
q 1 0 0 -1 0 841 cm
110.543 60.793 m 110.543 60.793 l S Q
q 1 0 0 -1 0 841 cm
111.18 60.793 m 111.18 60.793 l S Q
q 1 0 0 -1 0 841 cm
111.82 60.793 m 111.82 60.793 l S Q
q 1 0 0 -1 0 841 cm
107.988 61.43 m 107.988 61.43 l S Q
q 1 0 0 -1 0 841 cm
111.82 61.43 m 111.82 61.43 l S Q
q 1 0 0 -1 0 841 cm
107.988 62.07 m 107.988 62.07 l S Q
q 1 0 0 -1 0 841 cm
111.82 62.07 m 111.82 62.07 l S Q
q 1 0 0 -1 0 841 cm
107.988 63.609 m 107.988 63.609 l S Q
q 1 0 0 -1 0 841 cm
111.82 63.609 m 111.82 63.609 l S Q
q 1 0 0 -1 0 841 cm
107.988 64.25 m 107.988 64.25 l S Q
q 1 0 0 -1 0 841 cm
111.82 64.25 m 111.82 64.25 l S Q
q 1 0 0 -1 0 841 cm
108.625 64.887 m 108.625 64.887 l S Q
q 1 0 0 -1 0 841 cm
111.18 64.887 m 111.18 64.887 l S Q
q 1 0 0 -1 0 841 cm
109.266 65.527 m 109.266 65.527 l S Q
q 1 0 0 -1 0 841 cm
109.902 65.527 m 109.902 65.527 l S Q
q 1 0 0 -1 0 841 cm
110.543 65.527 m 110.543 65.527 l S Q
q 1 0 0 -1 0 841 cm
116.293 57.598 m 116.293 57.598 l S Q
q 1 0 0 -1 0 841 cm
120.125 57.598 m 120.125 57.598 l S Q
q 1 0 0 -1 0 841 cm
116.293 58.234 m 116.293 58.234 l S Q
q 1 0 0 -1 0 841 cm
120.125 58.234 m 120.125 58.234 l S Q
q 1 0 0 -1 0 841 cm
116.293 58.875 m 116.293 58.875 l S Q
q 1 0 0 -1 0 841 cm
120.125 58.875 m 120.125 58.875 l S Q
q 1 0 0 -1 0 841 cm
116.293 59.516 m 116.293 59.516 l S Q
q 1 0 0 -1 0 841 cm
120.125 59.516 m 120.125 59.516 l S Q
q 1 0 0 -1 0 841 cm
116.293 60.152 m 116.293 60.152 l S Q
q 1 0 0 -1 0 841 cm
120.125 60.152 m 120.125 60.152 l S Q
q 1 0 0 -1 0 841 cm
116.293 60.793 m 116.293 60.793 l S Q
q 1 0 0 -1 0 841 cm
116.93 60.793 m 116.93 60.793 l S Q
q 1 0 0 -1 0 841 cm
117.57 60.793 m 117.57 60.793 l S Q
q 1 0 0 -1 0 841 cm
118.207 60.793 m 118.207 60.793 l S Q
q 1 0 0 -1 0 841 cm
118.848 60.793 m 118.848 60.793 l S Q
q 1 0 0 -1 0 841 cm
119.488 60.793 m 119.488 60.793 l S Q
q 1 0 0 -1 0 841 cm
120.125 60.793 m 120.125 60.793 l S Q
q 1 0 0 -1 0 841 cm
116.293 61.43 m 116.293 61.43 l S Q
q 1 0 0 -1 0 841 cm
120.125 61.43 m 120.125 61.43 l S Q
q 1 0 0 -1 0 841 cm
116.293 62.07 m 116.293 62.07 l S Q
q 1 0 0 -1 0 841 cm
120.125 62.07 m 120.125 62.07 l S Q
q 1 0 0 -1 0 841 cm
116.293 63.609 m 116.293 63.609 l S Q
q 1 0 0 -1 0 841 cm
120.125 63.609 m 120.125 63.609 l S Q
q 1 0 0 -1 0 841 cm
116.293 64.25 m 116.293 64.25 l S Q
q 1 0 0 -1 0 841 cm
120.125 64.25 m 120.125 64.25 l S Q
q 1 0 0 -1 0 841 cm
116.293 64.887 m 116.293 64.887 l S Q
q 1 0 0 -1 0 841 cm
120.125 64.887 m 120.125 64.887 l S Q
q 1 0 0 -1 0 841 cm
116.293 65.527 m 116.293 65.527 l S Q
q 1 0 0 -1 0 841 cm
120.125 65.527 m 120.125 65.527 l S Q
q 1 0 0 -1 0 841 cm
124.598 57.598 m 124.598 57.598 l S Q
q 1 0 0 -1 0 841 cm
125.238 57.598 m 125.238 57.598 l S Q
q 1 0 0 -1 0 841 cm
125.875 57.598 m 125.875 57.598 l S Q
q 1 0 0 -1 0 841 cm
126.516 57.598 m 126.516 57.598 l S Q
q 1 0 0 -1 0 841 cm
127.152 57.598 m 127.152 57.598 l S Q
q 1 0 0 -1 0 841 cm
127.793 57.598 m 127.793 57.598 l S Q
q 1 0 0 -1 0 841 cm
128.43 57.598 m 128.43 57.598 l S Q
q 1 0 0 -1 0 841 cm
126.516 58.234 m 126.516 58.234 l S Q
q 1 0 0 -1 0 841 cm
126.516 58.875 m 126.516 58.875 l S Q
q 1 0 0 -1 0 841 cm
126.516 59.516 m 126.516 59.516 l S Q
q 1 0 0 -1 0 841 cm
126.516 60.152 m 126.516 60.152 l S Q
q 1 0 0 -1 0 841 cm
126.516 60.793 m 126.516 60.793 l S Q
q 1 0 0 -1 0 841 cm
126.516 61.43 m 126.516 61.43 l S Q
q 1 0 0 -1 0 841 cm
126.516 62.07 m 126.516 62.07 l S Q
q 1 0 0 -1 0 841 cm
126.516 63.609 m 126.516 63.609 l S Q
q 1 0 0 -1 0 841 cm
126.516 64.25 m 126.516 64.25 l S Q
q 1 0 0 -1 0 841 cm
126.516 64.887 m 126.516 64.887 l S Q
q 1 0 0 -1 0 841 cm
124.598 65.527 m 124.598 65.527 l S Q
q 1 0 0 -1 0 841 cm
125.238 65.527 m 125.238 65.527 l S Q
q 1 0 0 -1 0 841 cm
125.875 65.527 m 125.875 65.527 l S Q
q 1 0 0 -1 0 841 cm
126.516 65.527 m 126.516 65.527 l S Q
q 1 0 0 -1 0 841 cm
127.152 65.527 m 127.152 65.527 l S Q
q 1 0 0 -1 0 841 cm
127.793 65.527 m 127.793 65.527 l S Q
q 1 0 0 -1 0 841 cm
128.43 65.527 m 128.43 65.527 l S Q
q 1 0 0 -1 0 841 cm
132.902 57.598 m 132.902 57.598 l S Q
q 1 0 0 -1 0 841 cm
133.543 57.598 m 133.543 57.598 l S Q
q 1 0 0 -1 0 841 cm
134.18 57.598 m 134.18 57.598 l S Q
q 1 0 0 -1 0 841 cm
134.82 57.598 m 134.82 57.598 l S Q
q 1 0 0 -1 0 841 cm
135.457 57.598 m 135.457 57.598 l S Q
q 1 0 0 -1 0 841 cm
136.098 57.598 m 136.098 57.598 l S Q
q 1 0 0 -1 0 841 cm
136.738 57.598 m 136.738 57.598 l S Q
q 1 0 0 -1 0 841 cm
136.738 58.234 m 136.738 58.234 l S Q
q 1 0 0 -1 0 841 cm
136.738 58.875 m 136.738 58.875 l S Q
q 1 0 0 -1 0 841 cm
136.738 59.516 m 136.738 59.516 l S Q
q 1 0 0 -1 0 841 cm
136.738 60.152 m 136.738 60.152 l S Q
q 1 0 0 -1 0 841 cm
136.738 60.793 m 136.738 60.793 l S Q
q 1 0 0 -1 0 841 cm
136.738 61.43 m 136.738 61.43 l S Q
q 1 0 0 -1 0 841 cm
132.902 62.07 m 132.902 62.07 l S Q
q 1 0 0 -1 0 841 cm
136.738 62.07 m 136.738 62.07 l S Q
q 1 0 0 -1 0 841 cm
132.902 63.609 m 132.902 63.609 l S Q
q 1 0 0 -1 0 841 cm
136.738 63.609 m 136.738 63.609 l S Q
q 1 0 0 -1 0 841 cm
132.902 64.25 m 132.902 64.25 l S Q
q 1 0 0 -1 0 841 cm
136.738 64.25 m 136.738 64.25 l S Q
q 1 0 0 -1 0 841 cm
133.543 64.887 m 133.543 64.887 l S Q
q 1 0 0 -1 0 841 cm
136.098 64.887 m 136.098 64.887 l S Q
q 1 0 0 -1 0 841 cm
134.18 65.527 m 134.18 65.527 l S Q
q 1 0 0 -1 0 841 cm
134.82 65.527 m 134.82 65.527 l S Q
q 1 0 0 -1 0 841 cm
135.457 65.527 m 135.457 65.527 l S Q
q 1 0 0 -1 0 841 cm
141.207 57.598 m 141.207 57.598 l S Q
q 1 0 0 -1 0 841 cm
145.043 57.598 m 145.043 57.598 l S Q
q 1 0 0 -1 0 841 cm
141.207 58.234 m 141.207 58.234 l S Q
q 1 0 0 -1 0 841 cm
144.402 58.234 m 144.402 58.234 l S Q
q 1 0 0 -1 0 841 cm
141.207 58.875 m 141.207 58.875 l S Q
q 1 0 0 -1 0 841 cm
143.766 58.875 m 143.766 58.875 l S Q
q 1 0 0 -1 0 841 cm
141.207 59.516 m 141.207 59.516 l S Q
q 1 0 0 -1 0 841 cm
143.125 59.516 m 143.125 59.516 l S Q
q 1 0 0 -1 0 841 cm
141.207 60.152 m 141.207 60.152 l S Q
q 1 0 0 -1 0 841 cm
142.488 60.152 m 142.488 60.152 l S Q
q 1 0 0 -1 0 841 cm
141.207 60.793 m 141.207 60.793 l S Q
q 1 0 0 -1 0 841 cm
141.848 60.793 m 141.848 60.793 l S Q
q 1 0 0 -1 0 841 cm
141.207 61.43 m 141.207 61.43 l S Q
q 1 0 0 -1 0 841 cm
142.488 61.43 m 142.488 61.43 l S Q
q 1 0 0 -1 0 841 cm
141.207 62.07 m 141.207 62.07 l S Q
q 1 0 0 -1 0 841 cm
143.125 62.07 m 143.125 62.07 l S Q
q 1 0 0 -1 0 841 cm
141.207 63.609 m 141.207 63.609 l S Q
q 1 0 0 -1 0 841 cm
143.766 63.609 m 143.766 63.609 l S Q
q 1 0 0 -1 0 841 cm
141.207 64.25 m 141.207 64.25 l S Q
q 1 0 0 -1 0 841 cm
144.402 64.25 m 144.402 64.25 l S Q
q 1 0 0 -1 0 841 cm
141.207 64.887 m 141.207 64.887 l S Q
q 1 0 0 -1 0 841 cm
145.043 64.887 m 145.043 64.887 l S Q
q 1 0 0 -1 0 841 cm
141.207 65.527 m 141.207 65.527 l S Q
q 1 0 0 -1 0 841 cm
145.68 65.527 m 145.68 65.527 l S Q
q 1 0 0 -1 0 841 cm
149.516 57.598 m 149.516 57.598 l S Q
q 1 0 0 -1 0 841 cm
149.516 58.234 m 149.516 58.234 l S Q
q 1 0 0 -1 0 841 cm
149.516 58.875 m 149.516 58.875 l S Q
q 1 0 0 -1 0 841 cm
149.516 59.516 m 149.516 59.516 l S Q
q 1 0 0 -1 0 841 cm
149.516 60.152 m 149.516 60.152 l S Q
q 1 0 0 -1 0 841 cm
149.516 60.793 m 149.516 60.793 l S Q
q 1 0 0 -1 0 841 cm
149.516 61.43 m 149.516 61.43 l S Q
q 1 0 0 -1 0 841 cm
149.516 62.07 m 149.516 62.07 l S Q
q 1 0 0 -1 0 841 cm
149.516 63.609 m 149.516 63.609 l S Q
q 1 0 0 -1 0 841 cm
149.516 64.25 m 149.516 64.25 l S Q
q 1 0 0 -1 0 841 cm
149.516 64.887 m 149.516 64.887 l S Q
q 1 0 0 -1 0 841 cm
149.516 65.527 m 149.516 65.527 l S Q
q 1 0 0 -1 0 841 cm
150.152 65.527 m 150.152 65.527 l S Q
q 1 0 0 -1 0 841 cm
150.793 65.527 m 150.793 65.527 l S Q
q 1 0 0 -1 0 841 cm
151.43 65.527 m 151.43 65.527 l S Q
q 1 0 0 -1 0 841 cm
152.07 65.527 m 152.07 65.527 l S Q
q 1 0 0 -1 0 841 cm
152.707 65.527 m 152.707 65.527 l S Q
q 1 0 0 -1 0 841 cm
153.348 65.527 m 153.348 65.527 l S Q
q 1 0 0 -1 0 841 cm
157.82 57.598 m 157.82 57.598 l S Q
q 1 0 0 -1 0 841 cm
161.652 57.598 m 161.652 57.598 l S Q
q 1 0 0 -1 0 841 cm
157.82 58.234 m 157.82 58.234 l S Q
q 1 0 0 -1 0 841 cm
158.457 58.234 m 158.457 58.234 l S Q
q 1 0 0 -1 0 841 cm
161.016 58.234 m 161.016 58.234 l S Q
q 1 0 0 -1 0 841 cm
161.652 58.234 m 161.652 58.234 l S Q
q 1 0 0 -1 0 841 cm
157.82 58.875 m 157.82 58.875 l S Q
q 1 0 0 -1 0 841 cm
159.098 58.875 m 159.098 58.875 l S Q
q 1 0 0 -1 0 841 cm
160.375 58.875 m 160.375 58.875 l S Q
q 1 0 0 -1 0 841 cm
161.652 58.875 m 161.652 58.875 l S Q
q 1 0 0 -1 0 841 cm
157.82 59.516 m 157.82 59.516 l S Q
q 1 0 0 -1 0 841 cm
159.738 59.516 m 159.738 59.516 l S Q
q 1 0 0 -1 0 841 cm
161.652 59.516 m 161.652 59.516 l S Q
q 1 0 0 -1 0 841 cm
157.82 60.152 m 157.82 60.152 l S Q
q 1 0 0 -1 0 841 cm
161.652 60.152 m 161.652 60.152 l S Q
q 1 0 0 -1 0 841 cm
157.82 60.793 m 157.82 60.793 l S Q
q 1 0 0 -1 0 841 cm
161.652 60.793 m 161.652 60.793 l S Q
q 1 0 0 -1 0 841 cm
157.82 61.43 m 157.82 61.43 l S Q
q 1 0 0 -1 0 841 cm
161.652 61.43 m 161.652 61.43 l S Q
q 1 0 0 -1 0 841 cm
157.82 62.07 m 157.82 62.07 l S Q
q 1 0 0 -1 0 841 cm
161.652 62.07 m 161.652 62.07 l S Q
q 1 0 0 -1 0 841 cm
157.82 63.609 m 157.82 63.609 l S Q
q 1 0 0 -1 0 841 cm
161.652 63.609 m 161.652 63.609 l S Q
q 1 0 0 -1 0 841 cm
157.82 64.25 m 157.82 64.25 l S Q
q 1 0 0 -1 0 841 cm
161.652 64.25 m 161.652 64.25 l S Q
q 1 0 0 -1 0 841 cm
157.82 64.887 m 157.82 64.887 l S Q
q 1 0 0 -1 0 841 cm
161.652 64.887 m 161.652 64.887 l S Q
q 1 0 0 -1 0 841 cm
157.82 65.527 m 157.82 65.527 l S Q
q 1 0 0 -1 0 841 cm
161.652 65.527 m 161.652 65.527 l S Q
q 1 0 0 -1 0 841 cm
166.125 57.598 m 166.125 57.598 l S Q
q 1 0 0 -1 0 841 cm
169.957 57.598 m 169.957 57.598 l S Q
q 1 0 0 -1 0 841 cm
166.125 58.234 m 166.125 58.234 l S Q
q 1 0 0 -1 0 841 cm
166.766 58.234 m 166.766 58.234 l S Q
q 1 0 0 -1 0 841 cm
169.957 58.234 m 169.957 58.234 l S Q
q 1 0 0 -1 0 841 cm
166.125 58.875 m 166.125 58.875 l S Q
q 1 0 0 -1 0 841 cm
167.402 58.875 m 167.402 58.875 l S Q
q 1 0 0 -1 0 841 cm
169.957 58.875 m 169.957 58.875 l S Q
q 1 0 0 -1 0 841 cm
166.125 59.516 m 166.125 59.516 l S Q
q 1 0 0 -1 0 841 cm
168.043 59.516 m 168.043 59.516 l S Q
q 1 0 0 -1 0 841 cm
169.957 59.516 m 169.957 59.516 l S Q
q 1 0 0 -1 0 841 cm
166.125 60.152 m 166.125 60.152 l S Q
q 1 0 0 -1 0 841 cm
168.68 60.152 m 168.68 60.152 l S Q
q 1 0 0 -1 0 841 cm
169.957 60.152 m 169.957 60.152 l S Q
q 1 0 0 -1 0 841 cm
166.125 60.793 m 166.125 60.793 l S Q
q 1 0 0 -1 0 841 cm
169.32 60.793 m 169.32 60.793 l S Q
q 1 0 0 -1 0 841 cm
169.957 60.793 m 169.957 60.793 l S Q
q 1 0 0 -1 0 841 cm
166.125 61.43 m 166.125 61.43 l S Q
q 1 0 0 -1 0 841 cm
169.957 61.43 m 169.957 61.43 l S Q
q 1 0 0 -1 0 841 cm
166.125 62.07 m 166.125 62.07 l S Q
q 1 0 0 -1 0 841 cm
169.957 62.07 m 169.957 62.07 l S Q
q 1 0 0 -1 0 841 cm
166.125 63.609 m 166.125 63.609 l S Q
q 1 0 0 -1 0 841 cm
169.957 63.609 m 169.957 63.609 l S Q
q 1 0 0 -1 0 841 cm
166.125 64.25 m 166.125 64.25 l S Q
q 1 0 0 -1 0 841 cm
169.957 64.25 m 169.957 64.25 l S Q
q 1 0 0 -1 0 841 cm
166.125 64.887 m 166.125 64.887 l S Q
q 1 0 0 -1 0 841 cm
169.957 64.887 m 169.957 64.887 l S Q
q 1 0 0 -1 0 841 cm
166.125 65.527 m 166.125 65.527 l S Q
q 1 0 0 -1 0 841 cm
169.957 65.527 m 169.957 65.527 l S Q
q 1 0 0 -1 0 841 cm
175.707 57.598 m 175.707 57.598 l S Q
q 1 0 0 -1 0 841 cm
176.348 57.598 m 176.348 57.598 l S Q
q 1 0 0 -1 0 841 cm
176.988 57.598 m 176.988 57.598 l S Q
q 1 0 0 -1 0 841 cm
175.07 58.234 m 175.07 58.234 l S Q
q 1 0 0 -1 0 841 cm
177.625 58.234 m 177.625 58.234 l S Q
q 1 0 0 -1 0 841 cm
174.43 58.875 m 174.43 58.875 l S Q
q 1 0 0 -1 0 841 cm
178.266 58.875 m 178.266 58.875 l S Q
q 1 0 0 -1 0 841 cm
174.43 59.516 m 174.43 59.516 l S Q
q 1 0 0 -1 0 841 cm
178.266 59.516 m 178.266 59.516 l S Q
q 1 0 0 -1 0 841 cm
174.43 60.152 m 174.43 60.152 l S Q
q 1 0 0 -1 0 841 cm
178.266 60.152 m 178.266 60.152 l S Q
q 1 0 0 -1 0 841 cm
174.43 60.793 m 174.43 60.793 l S Q
q 1 0 0 -1 0 841 cm
178.266 60.793 m 178.266 60.793 l S Q
q 1 0 0 -1 0 841 cm
174.43 61.43 m 174.43 61.43 l S Q
q 1 0 0 -1 0 841 cm
178.266 61.43 m 178.266 61.43 l S Q
q 1 0 0 -1 0 841 cm
174.43 62.07 m 174.43 62.07 l S Q
q 1 0 0 -1 0 841 cm
178.266 62.07 m 178.266 62.07 l S Q
q 1 0 0 -1 0 841 cm
174.43 63.609 m 174.43 63.609 l S Q
q 1 0 0 -1 0 841 cm
178.266 63.609 m 178.266 63.609 l S Q
q 1 0 0 -1 0 841 cm
174.43 64.25 m 174.43 64.25 l S Q
q 1 0 0 -1 0 841 cm
178.266 64.25 m 178.266 64.25 l S Q
q 1 0 0 -1 0 841 cm
175.07 64.887 m 175.07 64.887 l S Q
q 1 0 0 -1 0 841 cm
177.625 64.887 m 177.625 64.887 l S Q
q 1 0 0 -1 0 841 cm
175.707 65.527 m 175.707 65.527 l S Q
q 1 0 0 -1 0 841 cm
176.348 65.527 m 176.348 65.527 l S Q
q 1 0 0 -1 0 841 cm
176.988 65.527 m 176.988 65.527 l S Q
q 1 0 0 -1 0 841 cm
182.738 57.598 m 182.738 57.598 l S Q
q 1 0 0 -1 0 841 cm
183.375 57.598 m 183.375 57.598 l S Q
q 1 0 0 -1 0 841 cm
184.016 57.598 m 184.016 57.598 l S Q
q 1 0 0 -1 0 841 cm
184.652 57.598 m 184.652 57.598 l S Q
q 1 0 0 -1 0 841 cm
185.293 57.598 m 185.293 57.598 l S Q
q 1 0 0 -1 0 841 cm
182.738 58.234 m 182.738 58.234 l S Q
q 1 0 0 -1 0 841 cm
185.93 58.234 m 185.93 58.234 l S Q
q 1 0 0 -1 0 841 cm
182.738 58.875 m 182.738 58.875 l S Q
q 1 0 0 -1 0 841 cm
186.57 58.875 m 186.57 58.875 l S Q
q 1 0 0 -1 0 841 cm
182.738 59.516 m 182.738 59.516 l S Q
q 1 0 0 -1 0 841 cm
186.57 59.516 m 186.57 59.516 l S Q
q 1 0 0 -1 0 841 cm
182.738 60.152 m 182.738 60.152 l S Q
q 1 0 0 -1 0 841 cm
185.93 60.152 m 185.93 60.152 l S Q
q 1 0 0 -1 0 841 cm
182.738 60.793 m 182.738 60.793 l S Q
q 1 0 0 -1 0 841 cm
183.375 60.793 m 183.375 60.793 l S Q
q 1 0 0 -1 0 841 cm
184.016 60.793 m 184.016 60.793 l S Q
q 1 0 0 -1 0 841 cm
184.652 60.793 m 184.652 60.793 l S Q
q 1 0 0 -1 0 841 cm
185.293 60.793 m 185.293 60.793 l S Q
q 1 0 0 -1 0 841 cm
182.738 61.43 m 182.738 61.43 l S Q
q 1 0 0 -1 0 841 cm
182.738 62.07 m 182.738 62.07 l S Q
q 1 0 0 -1 0 841 cm
182.738 63.609 m 182.738 63.609 l S Q
q 1 0 0 -1 0 841 cm
182.738 64.25 m 182.738 64.25 l S Q
q 1 0 0 -1 0 841 cm
182.738 64.887 m 182.738 64.887 l S Q
q 1 0 0 -1 0 841 cm
182.738 65.527 m 182.738 65.527 l S Q
q 1 0 0 -1 0 841 cm
192.32 57.598 m 192.32 57.598 l S Q
q 1 0 0 -1 0 841 cm
192.957 57.598 m 192.957 57.598 l S Q
q 1 0 0 -1 0 841 cm
193.598 57.598 m 193.598 57.598 l S Q
q 1 0 0 -1 0 841 cm
191.68 58.234 m 191.68 58.234 l S Q
q 1 0 0 -1 0 841 cm
194.238 58.234 m 194.238 58.234 l S Q
q 1 0 0 -1 0 841 cm
191.043 58.875 m 191.043 58.875 l S Q
q 1 0 0 -1 0 841 cm
194.875 58.875 m 194.875 58.875 l S Q
q 1 0 0 -1 0 841 cm
191.043 59.516 m 191.043 59.516 l S Q
q 1 0 0 -1 0 841 cm
194.875 59.516 m 194.875 59.516 l S Q
q 1 0 0 -1 0 841 cm
191.043 60.152 m 191.043 60.152 l S Q
q 1 0 0 -1 0 841 cm
194.875 60.152 m 194.875 60.152 l S Q
q 1 0 0 -1 0 841 cm
191.043 60.793 m 191.043 60.793 l S Q
q 1 0 0 -1 0 841 cm
194.875 60.793 m 194.875 60.793 l S Q
q 1 0 0 -1 0 841 cm
191.043 61.43 m 191.043 61.43 l S Q
q 1 0 0 -1 0 841 cm
194.875 61.43 m 194.875 61.43 l S Q
q 1 0 0 -1 0 841 cm
191.043 62.07 m 191.043 62.07 l S Q
q 1 0 0 -1 0 841 cm
194.875 62.07 m 194.875 62.07 l S Q
q 1 0 0 -1 0 841 cm
191.043 63.609 m 191.043 63.609 l S Q
q 1 0 0 -1 0 841 cm
194.875 63.609 m 194.875 63.609 l S Q
q 1 0 0 -1 0 841 cm
191.043 64.25 m 191.043 64.25 l S Q
q 1 0 0 -1 0 841 cm
193.598 64.25 m 193.598 64.25 l S Q
q 1 0 0 -1 0 841 cm
194.875 64.25 m 194.875 64.25 l S Q
q 1 0 0 -1 0 841 cm
191.68 64.887 m 191.68 64.887 l S Q
q 1 0 0 -1 0 841 cm
194.238 64.887 m 194.238 64.887 l S Q
q 1 0 0 -1 0 841 cm
192.32 65.527 m 192.32 65.527 l S Q
q 1 0 0 -1 0 841 cm
192.957 65.527 m 192.957 65.527 l S Q
q 1 0 0 -1 0 841 cm
193.598 65.527 m 193.598 65.527 l S Q
q 1 0 0 -1 0 841 cm
194.875 65.527 m 194.875 65.527 l S Q
q 1 0 0 -1 0 841 cm
199.348 57.598 m 199.348 57.598 l S Q
q 1 0 0 -1 0 841 cm
199.988 57.598 m 199.988 57.598 l S Q
q 1 0 0 -1 0 841 cm
200.625 57.598 m 200.625 57.598 l S Q
q 1 0 0 -1 0 841 cm
201.266 57.598 m 201.266 57.598 l S Q
q 1 0 0 -1 0 841 cm
201.902 57.598 m 201.902 57.598 l S Q
q 1 0 0 -1 0 841 cm
199.348 58.234 m 199.348 58.234 l S Q
q 1 0 0 -1 0 841 cm
202.543 58.234 m 202.543 58.234 l S Q
q 1 0 0 -1 0 841 cm
199.348 58.875 m 199.348 58.875 l S Q
q 1 0 0 -1 0 841 cm
203.18 58.875 m 203.18 58.875 l S Q
q 1 0 0 -1 0 841 cm
199.348 59.516 m 199.348 59.516 l S Q
q 1 0 0 -1 0 841 cm
203.18 59.516 m 203.18 59.516 l S Q
q 1 0 0 -1 0 841 cm
199.348 60.152 m 199.348 60.152 l S Q
q 1 0 0 -1 0 841 cm
202.543 60.152 m 202.543 60.152 l S Q
q 1 0 0 -1 0 841 cm
199.348 60.793 m 199.348 60.793 l S Q
q 1 0 0 -1 0 841 cm
199.988 60.793 m 199.988 60.793 l S Q
q 1 0 0 -1 0 841 cm
200.625 60.793 m 200.625 60.793 l S Q
q 1 0 0 -1 0 841 cm
201.266 60.793 m 201.266 60.793 l S Q
q 1 0 0 -1 0 841 cm
201.902 60.793 m 201.902 60.793 l S Q
q 1 0 0 -1 0 841 cm
199.348 61.43 m 199.348 61.43 l S Q
q 1 0 0 -1 0 841 cm
199.988 61.43 m 199.988 61.43 l S Q
q 1 0 0 -1 0 841 cm
199.348 62.07 m 199.348 62.07 l S Q
q 1 0 0 -1 0 841 cm
200.625 62.07 m 200.625 62.07 l S Q
q 1 0 0 -1 0 841 cm
199.348 63.609 m 199.348 63.609 l S Q
q 1 0 0 -1 0 841 cm
201.266 63.609 m 201.266 63.609 l S Q
q 1 0 0 -1 0 841 cm
199.348 64.25 m 199.348 64.25 l S Q
q 1 0 0 -1 0 841 cm
201.902 64.25 m 201.902 64.25 l S Q
q 1 0 0 -1 0 841 cm
199.348 64.887 m 199.348 64.887 l S Q
q 1 0 0 -1 0 841 cm
202.543 64.887 m 202.543 64.887 l S Q
q 1 0 0 -1 0 841 cm
199.348 65.527 m 199.348 65.527 l S Q
q 1 0 0 -1 0 841 cm
203.18 65.527 m 203.18 65.527 l S Q
q 1 0 0 -1 0 841 cm
208.93 57.598 m 208.93 57.598 l S Q
q 1 0 0 -1 0 841 cm
209.57 57.598 m 209.57 57.598 l S Q
q 1 0 0 -1 0 841 cm
210.207 57.598 m 210.207 57.598 l S Q
q 1 0 0 -1 0 841 cm
208.293 58.234 m 208.293 58.234 l S Q
q 1 0 0 -1 0 841 cm
210.848 58.234 m 210.848 58.234 l S Q
q 1 0 0 -1 0 841 cm
207.652 58.875 m 207.652 58.875 l S Q
q 1 0 0 -1 0 841 cm
207.652 59.516 m 207.652 59.516 l S Q
q 1 0 0 -1 0 841 cm
208.293 60.152 m 208.293 60.152 l S Q
q 1 0 0 -1 0 841 cm
208.93 60.793 m 208.93 60.793 l S Q
q 1 0 0 -1 0 841 cm
209.57 60.793 m 209.57 60.793 l S Q
q 1 0 0 -1 0 841 cm
210.207 60.793 m 210.207 60.793 l S Q
q 1 0 0 -1 0 841 cm
210.848 61.43 m 210.848 61.43 l S Q
q 1 0 0 -1 0 841 cm
211.488 62.07 m 211.488 62.07 l S Q
q 1 0 0 -1 0 841 cm
207.652 63.609 m 207.652 63.609 l S Q
q 1 0 0 -1 0 841 cm
211.488 63.609 m 211.488 63.609 l S Q
q 1 0 0 -1 0 841 cm
207.652 64.25 m 207.652 64.25 l S Q
q 1 0 0 -1 0 841 cm
211.488 64.25 m 211.488 64.25 l S Q
q 1 0 0 -1 0 841 cm
208.293 64.887 m 208.293 64.887 l S Q
q 1 0 0 -1 0 841 cm
210.848 64.887 m 210.848 64.887 l S Q
q 1 0 0 -1 0 841 cm
208.93 65.527 m 208.93 65.527 l S Q
q 1 0 0 -1 0 841 cm
209.57 65.527 m 209.57 65.527 l S Q
q 1 0 0 -1 0 841 cm
210.207 65.527 m 210.207 65.527 l S Q
q 1 0 0 -1 0 841 cm
215.957 57.598 m 215.957 57.598 l S Q
q 1 0 0 -1 0 841 cm
216.598 57.598 m 216.598 57.598 l S Q
q 1 0 0 -1 0 841 cm
217.238 57.598 m 217.238 57.598 l S Q
q 1 0 0 -1 0 841 cm
217.875 57.598 m 217.875 57.598 l S Q
q 1 0 0 -1 0 841 cm
218.516 57.598 m 218.516 57.598 l S Q
q 1 0 0 -1 0 841 cm
219.152 57.598 m 219.152 57.598 l S Q
q 1 0 0 -1 0 841 cm
219.793 57.598 m 219.793 57.598 l S Q
q 1 0 0 -1 0 841 cm
217.875 58.234 m 217.875 58.234 l S Q
q 1 0 0 -1 0 841 cm
217.875 58.875 m 217.875 58.875 l S Q
q 1 0 0 -1 0 841 cm
217.875 59.516 m 217.875 59.516 l S Q
q 1 0 0 -1 0 841 cm
217.875 60.152 m 217.875 60.152 l S Q
q 1 0 0 -1 0 841 cm
217.875 60.793 m 217.875 60.793 l S Q
q 1 0 0 -1 0 841 cm
217.875 61.43 m 217.875 61.43 l S Q
q 1 0 0 -1 0 841 cm
217.875 62.07 m 217.875 62.07 l S Q
q 1 0 0 -1 0 841 cm
217.875 63.609 m 217.875 63.609 l S Q
q 1 0 0 -1 0 841 cm
217.875 64.25 m 217.875 64.25 l S Q
q 1 0 0 -1 0 841 cm
217.875 64.887 m 217.875 64.887 l S Q
q 1 0 0 -1 0 841 cm
217.875 65.527 m 217.875 65.527 l S Q
q 1 0 0 -1 0 841 cm
224.266 57.598 m 224.266 57.598 l S Q
q 1 0 0 -1 0 841 cm
228.098 57.598 m 228.098 57.598 l S Q
q 1 0 0 -1 0 841 cm
224.266 58.234 m 224.266 58.234 l S Q
q 1 0 0 -1 0 841 cm
228.098 58.234 m 228.098 58.234 l S Q
q 1 0 0 -1 0 841 cm
224.266 58.875 m 224.266 58.875 l S Q
q 1 0 0 -1 0 841 cm
228.098 58.875 m 228.098 58.875 l S Q
q 1 0 0 -1 0 841 cm
224.266 59.516 m 224.266 59.516 l S Q
q 1 0 0 -1 0 841 cm
228.098 59.516 m 228.098 59.516 l S Q
q 1 0 0 -1 0 841 cm
224.266 60.152 m 224.266 60.152 l S Q
q 1 0 0 -1 0 841 cm
228.098 60.152 m 228.098 60.152 l S Q
q 1 0 0 -1 0 841 cm
224.266 60.793 m 224.266 60.793 l S Q
q 1 0 0 -1 0 841 cm
228.098 60.793 m 228.098 60.793 l S Q
q 1 0 0 -1 0 841 cm
224.266 61.43 m 224.266 61.43 l S Q
q 1 0 0 -1 0 841 cm
228.098 61.43 m 228.098 61.43 l S Q
q 1 0 0 -1 0 841 cm
224.266 62.07 m 224.266 62.07 l S Q
q 1 0 0 -1 0 841 cm
228.098 62.07 m 228.098 62.07 l S Q
q 1 0 0 -1 0 841 cm
224.266 63.609 m 224.266 63.609 l S Q
q 1 0 0 -1 0 841 cm
228.098 63.609 m 228.098 63.609 l S Q
q 1 0 0 -1 0 841 cm
224.266 64.25 m 224.266 64.25 l S Q
q 1 0 0 -1 0 841 cm
228.098 64.25 m 228.098 64.25 l S Q
q 1 0 0 -1 0 841 cm
224.902 64.887 m 224.902 64.887 l S Q
q 1 0 0 -1 0 841 cm
227.457 64.887 m 227.457 64.887 l S Q
q 1 0 0 -1 0 841 cm
225.543 65.527 m 225.543 65.527 l S Q
q 1 0 0 -1 0 841 cm
226.18 65.527 m 226.18 65.527 l S Q
q 1 0 0 -1 0 841 cm
226.82 65.527 m 226.82 65.527 l S Q
q 1 0 0 -1 0 841 cm
232.57 57.598 m 232.57 57.598 l S Q
q 1 0 0 -1 0 841 cm
236.402 57.598 m 236.402 57.598 l S Q
q 1 0 0 -1 0 841 cm
232.57 58.234 m 232.57 58.234 l S Q
q 1 0 0 -1 0 841 cm
236.402 58.234 m 236.402 58.234 l S Q
q 1 0 0 -1 0 841 cm
232.57 58.875 m 232.57 58.875 l S Q
q 1 0 0 -1 0 841 cm
236.402 58.875 m 236.402 58.875 l S Q
q 1 0 0 -1 0 841 cm
232.57 59.516 m 232.57 59.516 l S Q
q 1 0 0 -1 0 841 cm
236.402 59.516 m 236.402 59.516 l S Q
q 1 0 0 -1 0 841 cm
232.57 60.152 m 232.57 60.152 l S Q
q 1 0 0 -1 0 841 cm
236.402 60.152 m 236.402 60.152 l S Q
q 1 0 0 -1 0 841 cm
232.57 60.793 m 232.57 60.793 l S Q
q 1 0 0 -1 0 841 cm
236.402 60.793 m 236.402 60.793 l S Q
q 1 0 0 -1 0 841 cm
232.57 61.43 m 232.57 61.43 l S Q
q 1 0 0 -1 0 841 cm
236.402 61.43 m 236.402 61.43 l S Q
q 1 0 0 -1 0 841 cm
233.207 62.07 m 233.207 62.07 l S Q
q 1 0 0 -1 0 841 cm
235.766 62.07 m 235.766 62.07 l S Q
q 1 0 0 -1 0 841 cm
233.848 63.609 m 233.848 63.609 l S Q
q 1 0 0 -1 0 841 cm
235.125 63.609 m 235.125 63.609 l S Q
q 1 0 0 -1 0 841 cm
233.848 64.25 m 233.848 64.25 l S Q
q 1 0 0 -1 0 841 cm
235.125 64.25 m 235.125 64.25 l S Q
q 1 0 0 -1 0 841 cm
234.488 64.887 m 234.488 64.887 l S Q
q 1 0 0 -1 0 841 cm
234.488 65.527 m 234.488 65.527 l S Q
q 1 0 0 -1 0 841 cm
240.875 57.598 m 240.875 57.598 l S Q
q 1 0 0 -1 0 841 cm
244.707 57.598 m 244.707 57.598 l S Q
q 1 0 0 -1 0 841 cm
240.875 58.234 m 240.875 58.234 l S Q
q 1 0 0 -1 0 841 cm
244.707 58.234 m 244.707 58.234 l S Q
q 1 0 0 -1 0 841 cm
240.875 58.875 m 240.875 58.875 l S Q
q 1 0 0 -1 0 841 cm
244.707 58.875 m 244.707 58.875 l S Q
q 1 0 0 -1 0 841 cm
240.875 59.516 m 240.875 59.516 l S Q
q 1 0 0 -1 0 841 cm
244.707 59.516 m 244.707 59.516 l S Q
q 1 0 0 -1 0 841 cm
240.875 60.152 m 240.875 60.152 l S Q
q 1 0 0 -1 0 841 cm
244.707 60.152 m 244.707 60.152 l S Q
q 1 0 0 -1 0 841 cm
240.875 60.793 m 240.875 60.793 l S Q
q 1 0 0 -1 0 841 cm
242.793 60.793 m 242.793 60.793 l S Q
q 1 0 0 -1 0 841 cm
244.707 60.793 m 244.707 60.793 l S Q
q 1 0 0 -1 0 841 cm
240.875 61.43 m 240.875 61.43 l S Q
q 1 0 0 -1 0 841 cm
242.793 61.43 m 242.793 61.43 l S Q
q 1 0 0 -1 0 841 cm
244.707 61.43 m 244.707 61.43 l S Q
q 1 0 0 -1 0 841 cm
240.875 62.07 m 240.875 62.07 l S Q
q 1 0 0 -1 0 841 cm
242.793 62.07 m 242.793 62.07 l S Q
q 1 0 0 -1 0 841 cm
244.707 62.07 m 244.707 62.07 l S Q
q 1 0 0 -1 0 841 cm
240.875 63.609 m 240.875 63.609 l S Q
q 1 0 0 -1 0 841 cm
242.793 63.609 m 242.793 63.609 l S Q
q 1 0 0 -1 0 841 cm
244.707 63.609 m 244.707 63.609 l S Q
q 1 0 0 -1 0 841 cm
240.875 64.25 m 240.875 64.25 l S Q
q 1 0 0 -1 0 841 cm
242.793 64.25 m 242.793 64.25 l S Q
q 1 0 0 -1 0 841 cm
244.707 64.25 m 244.707 64.25 l S Q
q 1 0 0 -1 0 841 cm
241.516 64.887 m 241.516 64.887 l S Q
q 1 0 0 -1 0 841 cm
242.793 64.887 m 242.793 64.887 l S Q
q 1 0 0 -1 0 841 cm
244.07 64.887 m 244.07 64.887 l S Q
q 1 0 0 -1 0 841 cm
242.152 65.527 m 242.152 65.527 l S Q
q 1 0 0 -1 0 841 cm
243.43 65.527 m 243.43 65.527 l S Q
q 1 0 0 -1 0 841 cm
257.488 57.598 m 257.488 57.598 l S Q
q 1 0 0 -1 0 841 cm
261.32 57.598 m 261.32 57.598 l S Q
q 1 0 0 -1 0 841 cm
258.125 58.234 m 258.125 58.234 l S Q
q 1 0 0 -1 0 841 cm
260.68 58.234 m 260.68 58.234 l S Q
q 1 0 0 -1 0 841 cm
258.766 58.875 m 258.766 58.875 l S Q
q 1 0 0 -1 0 841 cm
260.043 58.875 m 260.043 58.875 l S Q
q 1 0 0 -1 0 841 cm
259.402 59.516 m 259.402 59.516 l S Q
q 1 0 0 -1 0 841 cm
259.402 60.152 m 259.402 60.152 l S Q
q 1 0 0 -1 0 841 cm
259.402 60.793 m 259.402 60.793 l S Q
q 1 0 0 -1 0 841 cm
259.402 61.43 m 259.402 61.43 l S Q
q 1 0 0 -1 0 841 cm
259.402 62.07 m 259.402 62.07 l S Q
q 1 0 0 -1 0 841 cm
259.402 63.609 m 259.402 63.609 l S Q
q 1 0 0 -1 0 841 cm
259.402 64.25 m 259.402 64.25 l S Q
q 1 0 0 -1 0 841 cm
259.402 64.887 m 259.402 64.887 l S Q
q 1 0 0 -1 0 841 cm
259.402 65.527 m 259.402 65.527 l S Q
q 1 0 0 -1 0 841 cm
265.793 57.598 m 265.793 57.598 l S Q
q 1 0 0 -1 0 841 cm
266.43 57.598 m 266.43 57.598 l S Q
q 1 0 0 -1 0 841 cm
267.07 57.598 m 267.07 57.598 l S Q
q 1 0 0 -1 0 841 cm
267.707 57.598 m 267.707 57.598 l S Q
q 1 0 0 -1 0 841 cm
268.348 57.598 m 268.348 57.598 l S Q
q 1 0 0 -1 0 841 cm
268.988 57.598 m 268.988 57.598 l S Q
q 1 0 0 -1 0 841 cm
269.625 57.598 m 269.625 57.598 l S Q
q 1 0 0 -1 0 841 cm
269.625 58.234 m 269.625 58.234 l S Q
q 1 0 0 -1 0 841 cm
269.625 58.875 m 269.625 58.875 l S Q
q 1 0 0 -1 0 841 cm
269.625 59.516 m 269.625 59.516 l S Q
q 1 0 0 -1 0 841 cm
268.988 60.152 m 268.988 60.152 l S Q
q 1 0 0 -1 0 841 cm
268.348 60.793 m 268.348 60.793 l S Q
q 1 0 0 -1 0 841 cm
267.707 61.43 m 267.707 61.43 l S Q
q 1 0 0 -1 0 841 cm
267.07 62.07 m 267.07 62.07 l S Q
q 1 0 0 -1 0 841 cm
266.43 63.609 m 266.43 63.609 l S Q
q 1 0 0 -1 0 841 cm
265.793 64.25 m 265.793 64.25 l S Q
q 1 0 0 -1 0 841 cm
265.793 64.887 m 265.793 64.887 l S Q
q 1 0 0 -1 0 841 cm
265.793 65.527 m 265.793 65.527 l S Q
q 1 0 0 -1 0 841 cm
266.43 65.527 m 266.43 65.527 l S Q
q 1 0 0 -1 0 841 cm
267.07 65.527 m 267.07 65.527 l S Q
q 1 0 0 -1 0 841 cm
267.707 65.527 m 267.707 65.527 l S Q
q 1 0 0 -1 0 841 cm
268.348 65.527 m 268.348 65.527 l S Q
q 1 0 0 -1 0 841 cm
268.988 65.527 m 268.988 65.527 l S Q
q 1 0 0 -1 0 841 cm
269.625 65.527 m 269.625 65.527 l S Q
q 1 0 0 -1 0 841 cm
276.016 65.527 m 276.016 65.527 l S Q
Q Q
showpage
%%Trailer
end restore
%%EOF
